{
  "content": [{
    "id": 10,
    "startDate": "2016-01-01",
    "endDate": "2016-02-02",
    "createdBy": "johndow",
    "title": "System alter test title 1",
    "description": "System alter test description 3 System alter test description 3 System alter test description 3 System alter test description 3"
  },{
    "id": 11,
    "startDate": "2016-01-01",
    "endDate": "2016-02-02",
    "createdBy": "johndow1",
    "title": "System alter test title 1",
    "description": "System alter test description 2"
  },{
    "id": 12,
    "startDate": "2016-01-01",
    "endDate": "2016-02-02",
    "createdBy": "johndow2",
    "title": "System alter test title 1",
    "description": "System alter test description 3"
  },{
    "id": 13,
    "startDate": "2016-01-01",
    "endDate": "2016-02-02",
    "createdBy": "johndow",
    "title": "System alter test title 1",
    "description": "System alter test description 1"
  },{
    "id": 14,
    "startDate": "2016-01-01",
    "endDate": "2016-02-02",
    "createdBy": "johndow1",
    "title": "System alter test title 1",
    "description": "System alter test description 2"
  },{
    "id": 15,
    "startDate": "2016-01-01",
    "endDate": "2016-02-02",
    "createdBy": "johndow2",
    "title": "System alter test title 1",
    "description": "System alter test description 3 System alter test description 3 System alter test description 3 System alter test description 3"
  },{
    "id": 16,
    "startDate": "2016-01-01",
    "endDate": "2016-02-02",
    "createdBy": "johndow",
    "title": "System alter test title 1",
    "description": "System alter test description 1"
  },{
    "id": 17,
    "startDate": "2016-01-01",
    "endDate": "2016-02-02",
    "createdBy": "johndow1",
    "title": "System alter test title 1",
    "description": "System alter test description 2"
  },{
    "id": 18,
    "startDate": "2016-01-01",
    "endDate": "2016-02-02",
    "createdBy": "johndow2",
    "title": "System alter test title 1",
    "description": "System alter test description 3"
  },{
    "id": 19,
    "startDate": "2016-01-01",
    "endDate": "2016-02-02",
    "createdBy": "johndow",
    "title": "System alter test title 1",
    "description": "System alter test description 1"
  }],
  "first": true,
  "last": false,
  "number": 0,
  "numberOfElements": 10,
  "size": 10,
  "sort": [
    {
      "ascending": true,
      "direction": "ASC",
      "ignoreCase": false,
      "nullHandling": "NATIVE",
      "property": "name"
    }
  ],
  "totalElements": 12,
  "totalPages": 2
}
